{
    "destination_name": "MyDestinationName",
    "admin_name": "FirstName LastName",
    "target_id": "target-{{ cookiecutter.destination_name.lower() }}",
    "library_name": "{{ cookiecutter.target_id.replace('-', '_') }}",
    "serialization_method": ["Per record", "Per batch"]
}